{
  "gmSettings": {
    "default": {
      "items": [
        {
          "disposition": "FRIENDLY",
          "items": [
            {
              "value": "system.dynamic.move-rate.value",
              "icon": "fa-shoe-prints",
              "isFunction": false,
              "expression": false,
              "isNumber": false,
              "color": "#6ae817"
            },
            {
              "value": "system.dynamic.woundsbleed.value",
              "icon": "fa-tint",
              "isFunction": false,
              "expression": false,
              "isNumber": false,
              "color": "#99c080"
            },
            {
              "value": "{\nhp=<system.tracked.hp.value>;\nhpm=<system.tracked.hp.max>;\nconcat(string(hp), \"/\", string(hpm))\n}",
              "icon": "fa-heart",
              "isFunction": false,
              "expression": true,
              "isNumber": false,
              "color": "#ad3288"
            },
            {
              "value": "system.defence.meleeDB",
              "icon": "fa-shield-alt",
              "isFunction": false,
              "expression": false,
              "isNumber": false,
              "color": "#55883e"
            },
            {
              "value": "system.defence.missileDB",
              "icon": "fa-bullseye",
              "isFunction": false,
              "expression": false,
              "isNumber": false,
              "color": "#efdf38"
            },
            {
              "value": "system.defence.armourType",
              "icon": "fa-user-shield",
              "isFunction": false,
              "expression": false,
              "isNumber": false,
              "color": "#9e8830"
            },
            {
              "value": "flags.system.action",
              "icon": "fa-shoe-prints",
              "isFunction": false,
              "expression": false,
              "isNumber": false,
              "color": "#a8d1b3"
            }
          ]
        },
        {
          "disposition": "NEUTRAL",
          "items": [
            {
              "value": "system.dynamic.move-rate.value",
              "icon": "fa-shoe-prints",
              "isFunction": false,
              "expression": false,
              "isNumber": false,
              "color": "#6ae817"
            },
            {
              "value": "system.dynamic.woundsbleed.value",
              "icon": "fa-tint",
              "isFunction": false,
              "expression": false,
              "isNumber": false,
              "color": "#99c080"
            },
            {
              "value": "{\nhp=<system.tracked.hp.value>;\nhpm=<system.tracked.hp.max>;\nconcat(string(hp), \"/\", string(hpm))\n}",
              "icon": "fa-heart",
              "isFunction": false,
              "expression": true,
              "isNumber": false,
              "color": "#ad3288"
            },
            {
              "value": "system.defence.meleeDB",
              "icon": "fa-shield-alt",
              "isFunction": false,
              "expression": false,
              "isNumber": false,
              "color": "#55883e"
            },
            {
              "value": "system.defence.missileDB",
              "icon": "fa-bullseye",
              "isFunction": false,
              "expression": false,
              "isNumber": false,
              "color": "#efdf38"
            },
            {
              "value": "system.defence.armourType",
              "icon": "fa-user-shield",
              "isFunction": false,
              "expression": false,
              "isNumber": false,
              "color": "#9e8830"
            },
            {
              "value": "flags.system.action",
              "icon": "fa-shoe-prints",
              "isFunction": false,
              "expression": false,
              "isNumber": false,
              "color": "#a8d1b3"
            }
          ]
        },
        {
          "disposition": "HOSTILE",
          "items": [
            {
              "value": "system.dynamic.move-rate.value",
              "icon": "fa-shoe-prints",
              "isFunction": false,
              "expression": false,
              "isNumber": false,
              "color": "#6ae817"
            },
            {
              "value": "system.dynamic.woundsbleed.value",
              "icon": "fa-tint",
              "isFunction": false,
              "expression": false,
              "isNumber": false,
              "color": "#99c080"
            },
            {
              "value": "{\nhp=<system.tracked.hp.value>;\nhpm=<system.tracked.hp.max>;\nconcat(string(hp), \"/\", string(hpm))\n}",
              "icon": "fa-heart",
              "isFunction": false,
              "expression": true,
              "isNumber": false,
              "color": "#ad3288"
            },
            {
              "value": "system.defence.meleeDB",
              "icon": "fa-shield-alt",
              "isFunction": false,
              "expression": false,
              "isNumber": false,
              "color": "#55883e"
            },
            {
              "value": "system.defence.missileDB",
              "icon": "fa-bullseye",
              "isFunction": false,
              "expression": false,
              "isNumber": false,
              "color": "#efdf38"
            },
            {
              "value": "system.defence.armourType",
              "icon": "fa-user-shield",
              "isFunction": false,
              "expression": false,
              "isNumber": false,
              "color": "#9e8830"
            },
            {
              "value": "flags.system.action",
              "icon": "fa-shoe-prints",
              "isFunction": false,
              "expression": false,
              "isNumber": false,
              "color": "#a8d1b3"
            }
          ]
        }
      ],
      "static": {
        "displayNameInTooltip": true,
        "useAccentEverywhere": true,
        "accentColor": "#ab5474",
        "tokenDispositions": [
          "OWNED",
          "FRIENDLY",
          "NEUTRAL",
          "HOSTILE"
        ]
      }
    },
    "CharacterD20": {
      "items": [
        {
          "disposition": "FRIENDLY",
          "items": []
        },
        {
          "disposition": "NEUTRAL",
          "items": []
        },
        {
          "disposition": "HOSTILE",
          "items": []
        }
      ],
      "static": {
        "displayNameInTooltip": true,
        "accentColor": "#7b8cac",
        "useAccentColorForEverything": false,
        "tokenDispositions": [
          "FRIENDLY",
          "NEUTRAL",
          "HOSTILE"
        ]
      }
    },
    "CharacterOaTS": {
      "items": [
        {
          "disposition": "FRIENDLY",
          "items": []
        },
        {
          "disposition": "NEUTRAL",
          "items": []
        },
        {
          "disposition": "HOSTILE",
          "items": []
        }
      ],
      "static": {
        "displayNameInTooltip": true,
        "accentColor": "#d72320",
        "useAccentColorForEverything": false,
        "tokenDispositions": [
          "FRIENDLY",
          "NEUTRAL",
          "HOSTILE"
        ]
      }
    },
    "CharacterD100": {
      "items": [
        {
          "disposition": "FRIENDLY",
          "items": []
        },
        {
          "disposition": "NEUTRAL",
          "items": []
        },
        {
          "disposition": "HOSTILE",
          "items": []
        }
      ],
      "static": {
        "displayNameInTooltip": true,
        "accentColor": "#0678ce",
        "useAccentColorForEverything": false,
        "tokenDispositions": [
          "FRIENDLY",
          "NEUTRAL",
          "HOSTILE"
        ]
      }
    },
    "Character3D6": {
      "items": [
        {
          "disposition": "FRIENDLY",
          "items": []
        },
        {
          "disposition": "NEUTRAL",
          "items": []
        },
        {
          "disposition": "HOSTILE",
          "items": []
        }
      ],
      "static": {
        "displayNameInTooltip": true,
        "accentColor": "#a809f3",
        "useAccentColorForEverything": false,
        "tokenDispositions": [
          "FRIENDLY",
          "NEUTRAL",
          "HOSTILE"
        ]
      }
    },
    "CharacterVsD": {
      "items": [
        {
          "disposition": "FRIENDLY",
          "items": []
        },
        {
          "disposition": "NEUTRAL",
          "items": []
        },
        {
          "disposition": "HOSTILE",
          "items": []
        }
      ],
      "static": {
        "displayNameInTooltip": true,
        "accentColor": "#058edb",
        "useAccentColorForEverything": false,
        "tokenDispositions": [
          "FRIENDLY",
          "NEUTRAL",
          "HOSTILE"
        ]
      }
    },
    "CharacterD120": {
      "items": [
        {
          "disposition": "FRIENDLY",
          "items": []
        },
        {
          "disposition": "NEUTRAL",
          "items": []
        },
        {
          "disposition": "HOSTILE",
          "items": []
        }
      ],
      "static": {
        "displayNameInTooltip": true,
        "accentColor": "#274f9b",
        "useAccentColorForEverything": false,
        "tokenDispositions": [
          "FRIENDLY",
          "NEUTRAL",
          "HOSTILE"
        ]
      }
    },
    "CharacterFragged": {
      "items": [
        {
          "disposition": "FRIENDLY",
          "items": []
        },
        {
          "disposition": "NEUTRAL",
          "items": []
        },
        {
          "disposition": "HOSTILE",
          "items": []
        }
      ],
      "static": {
        "displayNameInTooltip": true,
        "accentColor": "#a646e1",
        "useAccentColorForEverything": false,
        "tokenDispositions": [
          "FRIENDLY",
          "NEUTRAL",
          "HOSTILE"
        ]
      }
    }
  },
  "playerSettings": {
    "default": {
      "items": [
        {
          "disposition": "OWNED",
          "items": [
            {
              "value": "system.dynamic.move-rate.value",
              "icon": "fa-shoe-prints",
              "isFunction": false,
              "expression": false,
              "isNumber": false,
              "color": "#6ae817"
            },
            {
              "value": "system.dynamic.woundsbleed.value",
              "icon": "fa-tint",
              "isFunction": false,
              "expression": false,
              "isNumber": false,
              "color": "#99c080"
            },
            {
              "value": "{\nhp=<system.tracked.hp.value>;\nhpm=<system.tracked.hp.max>;\nconcat(string(hp), \"/\", string(hpm))\n}",
              "icon": "fa-heart",
              "isFunction": false,
              "expression": true,
              "isNumber": false,
              "color": "#ad3288"
            },
            {
              "value": "system.defence.meleeDB",
              "icon": "fa-shield-alt",
              "isFunction": false,
              "expression": false,
              "isNumber": false,
              "color": "#55883e"
            },
            {
              "value": "system.defence.missileDB",
              "icon": "fa-bullseye",
              "isFunction": false,
              "expression": false,
              "isNumber": false,
              "color": "#efdf38"
            },
            {
              "value": "system.defence.armourType",
              "icon": "fa-user-shield",
              "isFunction": false,
              "expression": false,
              "isNumber": false,
              "color": "#9e8830"
            },
            {
              "value": "flags.system.action",
              "icon": "fa-shoe-prints",
              "isFunction": false,
              "expression": false,
              "isNumber": false,
              "color": "#a8d1b3"
            }
          ]
        },
        {
          "disposition": "FRIENDLY",
          "items": [
            {
              "value": "system.dynamic.move-rate.value",
              "icon": "fa-shoe-prints",
              "isFunction": false,
              "expression": false,
              "isNumber": false,
              "color": "#6ae817"
            },
            {
              "value": "system.dynamic.woundsbleed.value",
              "icon": "fa-tint",
              "isFunction": false,
              "expression": false,
              "isNumber": false,
              "color": "#99c080"
            },
            {
              "value": "{\nhp=<system.tracked.hp.value>;\nhpm=<system.tracked.hp.max>;\nconcat(string(hp), \"/\", string(hpm))\n}",
              "icon": "fa-heart",
              "isFunction": false,
              "expression": true,
              "isNumber": false,
              "color": "#ad3288"
            },
            {
              "value": "system.defence.meleeDB",
              "icon": "fa-shield-alt",
              "isFunction": false,
              "expression": false,
              "isNumber": false,
              "color": "#55883e"
            },
            {
              "value": "system.defence.missileDB",
              "icon": "fa-bullseye",
              "isFunction": false,
              "expression": false,
              "isNumber": false,
              "color": "#efdf38"
            },
            {
              "value": "system.defence.armourType",
              "icon": "fa-user-shield",
              "isFunction": false,
              "expression": false,
              "isNumber": false,
              "color": "#9e8830"
            },
            {
              "value": "flags.system.action",
              "icon": "fa-shoe-prints",
              "isFunction": false,
              "expression": false,
              "isNumber": false,
              "color": "#a8d1b3"
            }
          ]
        },
        {
          "disposition": "NEUTRAL",
          "items": [
            {
              "value": "system.dynamic.move-rate.value",
              "icon": "fa-shoe-prints",
              "isFunction": false,
              "expression": false,
              "isNumber": false,
              "color": "#6ae817"
            },
            {
              "value": "system.dynamic.woundsbleed.value",
              "icon": "fa-tint",
              "isFunction": false,
              "expression": false,
              "isNumber": false,
              "color": "#99c080"
            },
            {
              "value": "system.tracked.hp.state",
              "icon": "fa-heart",
              "isFunction": false,
              "expression": false,
              "isNumber": false,
              "color": "#ad3288"
            },
            {
              "value": "system.defence.meleeDB",
              "icon": "fa-shield-alt",
              "isFunction": false,
              "expression": false,
              "isNumber": false,
              "color": "#55883e"
            },
            {
              "value": "system.defence.missileDB",
              "icon": "fa-bullseye",
              "isFunction": false,
              "expression": false,
              "isNumber": false,
              "color": "#efdf38"
            },
            {
              "value": "system.defence.armourType",
              "icon": "fa-user-shield",
              "isFunction": false,
              "expression": false,
              "isNumber": false,
              "color": "#9e8830"
            },
            {
              "value": "flags.system.action",
              "icon": "fa-shoe-prints",
              "isFunction": false,
              "expression": false,
              "isNumber": false,
              "color": "#a8d1b3"
            }
          ]
        },
        {
          "disposition": "HOSTILE",
          "items": [
            {
              "value": "system.dynamic.move-rate.value",
              "icon": "fa-shoe-prints",
              "isFunction": false,
              "expression": false,
              "isNumber": false,
              "color": "#6ae817"
            },
            {
              "value": "system.dynamic.woundsbleed.value",
              "icon": "fa-tint",
              "isFunction": false,
              "expression": false,
              "isNumber": false,
              "color": "#99c080"
            },
            {
              "value": "system.tracked.hp.state",
              "icon": "fa-heart",
              "isFunction": false,
              "expression": false,
              "isNumber": false,
              "color": "#ad3288"
            },
            {
              "value": "system.defence.meleeDB",
              "icon": "fa-shield-alt",
              "isFunction": false,
              "expression": false,
              "isNumber": false,
              "color": "#55883e"
            },
            {
              "value": "system.defence.missileDB",
              "icon": "fa-bullseye",
              "isFunction": false,
              "expression": false,
              "isNumber": false,
              "color": "#efdf38"
            },
            {
              "value": "system.defence.armourType",
              "icon": "fa-user-shield",
              "isFunction": false,
              "expression": false,
              "isNumber": false,
              "color": "#9e8830"
            },
            {
              "value": "flags.system.action",
              "icon": "fa-shoe-prints",
              "isFunction": false,
              "expression": false,
              "isNumber": false,
              "color": "#a8d1b3"
            }
          ]
        }
      ],
      "static": {
        "displayNameInTooltip": "HOSTILE",
        "useAccentEverywhere": true,
        "accentColor": "#921ea9",
        "tokenDispositions": [
          "FRIENDLY",
          "NEUTRAL",
          "HOSTILE"
        ]
      }
    },
    "CharacterD20": {
      "items": [
        {
          "disposition": "OWNED",
          "items": []
        },
        {
          "disposition": "FRIENDLY",
          "items": []
        },
        {
          "disposition": "NEUTRAL",
          "items": []
        },
        {
          "disposition": "HOSTILE",
          "items": []
        }
      ],
      "static": {
        "displayNameInTooltip": "OWNED",
        "accentColor": "#fb6232",
        "useAccentColorForEverything": false,
        "tokenDispositions": [
          "OWNED",
          "FRIENDLY",
          "NEUTRAL",
          "HOSTILE"
        ]
      }
    },
    "CharacterOaTS": {
      "items": [
        {
          "disposition": "OWNED",
          "items": []
        },
        {
          "disposition": "FRIENDLY",
          "items": []
        },
        {
          "disposition": "NEUTRAL",
          "items": []
        },
        {
          "disposition": "HOSTILE",
          "items": []
        }
      ],
      "static": {
        "displayNameInTooltip": "OWNED",
        "accentColor": "#fb501f",
        "useAccentColorForEverything": false,
        "tokenDispositions": [
          "OWNED",
          "FRIENDLY",
          "NEUTRAL",
          "HOSTILE"
        ]
      }
    },
    "CharacterD100": {
      "items": [
        {
          "disposition": "OWNED",
          "items": []
        },
        {
          "disposition": "FRIENDLY",
          "items": []
        },
        {
          "disposition": "NEUTRAL",
          "items": []
        },
        {
          "disposition": "HOSTILE",
          "items": []
        }
      ],
      "static": {
        "displayNameInTooltip": "OWNED",
        "accentColor": "#1cca52",
        "useAccentColorForEverything": false,
        "tokenDispositions": [
          "OWNED",
          "FRIENDLY",
          "NEUTRAL",
          "HOSTILE"
        ]
      }
    },
    "Character3D6": {
      "items": [
        {
          "disposition": "OWNED",
          "items": []
        },
        {
          "disposition": "FRIENDLY",
          "items": []
        },
        {
          "disposition": "NEUTRAL",
          "items": []
        },
        {
          "disposition": "HOSTILE",
          "items": []
        }
      ],
      "static": {
        "displayNameInTooltip": "OWNED",
        "accentColor": "#dde7e2",
        "useAccentColorForEverything": false,
        "tokenDispositions": [
          "OWNED",
          "FRIENDLY",
          "NEUTRAL",
          "HOSTILE"
        ]
      }
    },
    "CharacterVsD": {
      "items": [
        {
          "disposition": "OWNED",
          "items": []
        },
        {
          "disposition": "FRIENDLY",
          "items": []
        },
        {
          "disposition": "NEUTRAL",
          "items": []
        },
        {
          "disposition": "HOSTILE",
          "items": []
        }
      ],
      "static": {
        "displayNameInTooltip": "OWNED",
        "accentColor": "#ce7353",
        "useAccentColorForEverything": false,
        "tokenDispositions": [
          "OWNED",
          "FRIENDLY",
          "NEUTRAL",
          "HOSTILE"
        ]
      }
    },
    "CharacterD120": {
      "items": [
        {
          "disposition": "OWNED",
          "items": []
        },
        {
          "disposition": "FRIENDLY",
          "items": []
        },
        {
          "disposition": "NEUTRAL",
          "items": []
        },
        {
          "disposition": "HOSTILE",
          "items": []
        }
      ],
      "static": {
        "displayNameInTooltip": "OWNED",
        "accentColor": "#889191",
        "useAccentColorForEverything": false,
        "tokenDispositions": [
          "OWNED",
          "FRIENDLY",
          "NEUTRAL",
          "HOSTILE"
        ]
      }
    },
    "CharacterFragged": {
      "items": [
        {
          "disposition": "OWNED",
          "items": []
        },
        {
          "disposition": "FRIENDLY",
          "items": []
        },
        {
          "disposition": "NEUTRAL",
          "items": []
        },
        {
          "disposition": "HOSTILE",
          "items": []
        }
      ],
      "static": {
        "displayNameInTooltip": "OWNED",
        "accentColor": "#b35d15",
        "useAccentColorForEverything": false,
        "tokenDispositions": [
          "OWNED",
          "FRIENDLY",
          "NEUTRAL",
          "HOSTILE"
        ]
      }
    }
  }
}